// Jest Snapshot v1, https://goo.gl/fbAQLP

exports[`Series Details Tests Component Snapshot 1`] = `
<div
  className="series-details container my-5"
>
  <div
    className="series-details__top row"
  >
    <div
      className="series-details__img-box col-md-9"
    >
      <div
        className="series-details__back-btn"
        onClick={[Function]}
      >
        <img
          alt="Back"
          src="back.svg"
        />
      </div>
      <div
        className="series-details__img-box"
      >
        <img
          alt="Paradise Hotel"
          className="series-details__img"
          src="https://i-viaplay-com.akamaized.net/viaplay-prod/43/764/1567083136-9f84431d0f30c5614165a22ffcf6bf0ad388a7e9.jpg?width=960&height=540"
        />
      </div>
    </div>
    <div
      className="series-details__desc col-md-3"
    >
      <div
        className="series-details__desc-top"
      >
        <h1
          className="series-details__title"
        >
          Paradise Hotel
          <span
            className="series-details__year"
          >
            (
            2013
            )
          </span>
        </h1>
        <div
          className="series-details__description"
        >
          Ett gäng av glödheta singlar checkar in på lyxhotellet i Mexiko. Förbered er på kärlek, fest, svekfulla pakter och tårar. En halv miljon kronor står på spel och precis allt kan hända i paradiset.
        </div>
      </div>
      <div
        className="series-details__people"
      />
      <div
        className="series-details__imdb"
      >
        <span
          className="series-details__imdb-title"
        >
          IMDB:
        </span>
        <span
          className="series-details__imdb-rate"
        >
          <strong>
            4.0
          </strong>
          /10
        </span>
        <span
          className="series-details__imdb-votes"
        >
          (
          280
          )
        </span>
      </div>
    </div>
  </div>
</div>
`;
